…
``` r
activity_df <- read_csv(file = "./data/p8105_mtp_data.csv") %>%
  janitor::clean_names() %>% 
  gather(key = daily_min, value = activity, activity_1:activity_1440) %>% 
  mutate(daily_min = str_replace(daily_min, "activity_", ""),
         daily_min = as.numeric(daily_min),
         day = ordered(day, levels = c("Sunday", "Monday", "Tuesday", "Wednesday", "Thursday", 
"Friday", "Saturday"))) %>% 
  arrange(week, day, daily_min)

activity_df
```

    ## # A tibble: 473,760 x 4
    ##     week day    daily_min activity
    ##    <int> <ord>      <dbl>    <dbl>
    ##  1     1 Sunday         1        1
    ##  2     1 Sunday         2        1
    ##  3     1 Sunday         3        1
    ##  4     1 Sunday         4        1
    ##  5     1 Sunday         5        1
    ##  6     1 Sunday         6        1
    ##  7     1 Sunday         7        1
    ##  8     1 Sunday         8        1
    ##  9     1 Sunday         9        1
    ## 10     1 Sunday        10        1
    ## # ... with 473,750 more rows
…
